%YAML 1.1
%TAG !u! tag:unity3d.com,2011:
--- !u!1045 &1
EditorBuildSettings:
  m_ObjectHideFlags: 0
  serializedVersion: 2
  m_Scenes:
  - enabled: 1
    path: Assets/Template/JUMP.unity
    guid: 8d5d3ee80882d9c45b896e52bfe553a1
  m_configObjects: {}
